{
  "project_info": {
    "project_number": "301719061927",
    "firebase_url": "https://carmonitor-44313.firebaseio.com",
    "project_id": "carmonitor-44313",
    "storage_bucket": "carmonitor-44313.appspot.com"
  },
  "client": [
    {
      "client_info": {
        "mobilesdk_app_id": "1:301719061927:android:d0a30daa19f5b365",
        "android_client_info": {
          "package_name": "pl.krystianplonski.carmonitor"
        }
      },
      "oauth_client": [
        {
          "client_id": "301719061927-53lntbsuc5327kmedbjrh2ot7499lqp1.apps.googleusercontent.com",
          "client_type": 1,
          "android_info": {
            "package_name": "pl.krystianplonski.carmonitor",
            "certificate_hash": "ad6c2334e5279c2e7708bda6d24a18bedaedf57f"
          }
        },
        {
          "client_id": "301719061927-nobd3i5rnts1oh0cr2k6p8qrsqujp55v.apps.googleusercontent.com",
          "client_type": 3
        }
      ],
      "api_key": [
        {
          "current_key": "AIzaSyBOxF4nDNafSbXVL_XxNVACfaCxZZ0jgGw"
        }
      ],
      "services": {
        "analytics_service": {
          "status": 1
        },
        "appinvite_service": {
          "status": 2,
          "other_platform_oauth_client": [
            {
              "client_id": "301719061927-nobd3i5rnts1oh0cr2k6p8qrsqujp55v.apps.googleusercontent.com",
              "client_type": 3
            }
          ]
        },
        "ads_service": {
          "status": 2
        }
      }
    }
  ],
  "configuration_version": "1"
}